<svg xmlns="http://www.w3.org/2000/svg" viewBox="0 0 14.86 19.09">
    <title>basket</title>
    <g id="Слой_2" data-name="Слой 2">
        <g id="Layer_1" data-name="Layer 1">
            <path d="M12.06,19.09H2.8A2.8,2.8,0,0,1,0,16.29V7.51a2.8,2.8,0,0,1,2.8-2.8h9.26a2.8,2.8,0,0,1,2.8,2.8v8.78A2.8,2.8,0,0,1,12.06,19.09ZM2.8,5.71A1.8,1.8,0,0,0,1,7.51v8.78a1.81,1.81,0,0,0,1.8,1.8h9.26a1.81,1.81,0,0,0,1.8-1.8V7.51a1.8,1.8,0,0,0-1.8-1.8Z"/>
            <path d="M10.75,7.93a.5.5,0,0,1-.5-.5V3.6A2.61,2.61,0,0,0,7.65,1H7.2A2.61,2.61,0,0,0,4.6,3.6V7.43a.5.5,0,0,1-.5.5.5.5,0,0,1-.5-.5V3.6A3.61,3.61,0,0,1,7.2,0h.45a3.6,3.6,0,0,1,3.6,3.6V7.43A.5.5,0,0,1,10.75,7.93Z"/>
        </g>
    </g>
</svg>